Pset-2
…
4: Transformations

FRED_clean = FRED_clean %>%
  mutate(
    diff_housing = housing - lag(housing),
    diff_mr = mortgage_rate - lag(mortgage_rate),
    infl = 100 * (log(cpi/lag(cpi))),
    diff_industry = industry - lag(industry),
    diff_unemp = unemp - lag(unemp)
  )
FRED_clean

## # A tibble: 431 × 14
##    date        time country housing mortgage_rate   cpi industry unemp recession
##    <date>     <dbl> <chr>     <dbl>         <dbl> <dbl>    <dbl> <dbl>     <dbl>
##  1 1990-01-01     1 US         1551           9.9  128.     61.7   5.4         0
##  2 1990-02-01     2 US         1437          10.2  128      62.3   5.3         0
##  3 1990-03-01     3 US         1289          10.3  129.     62.6   5.2         0
##  4 1990-04-01     4 US         1248          10.4  129.     62.4   5.4         0
##  5 1990-05-01     5 US         1212          10.5  129.     62.6   5.4         0
##  6 1990-06-01     6 US         1177          10.2  130.     62.8   5.2         0
##  7 1990-07-01     7 US         1171          10.0  130.     62.7   5.5         0
##  8 1990-08-01     8 US         1115          10.1  132.     62.9   5.7         1
##  9 1990-09-01     9 US         1110          10.2  132.     63.0   5.9         1
## 10 1990-10-01    10 US         1014          10.2  133.     62.6   5.9         1
## # ℹ 421 more rows
## # ℹ 5 more variables: diff_housing <dbl>, diff_mr <dbl>, infl <dbl>,
## #   diff_industry <dbl>, diff_unemp <dbl>
…
