pset_1
…
nrow(filter(life_df, income_quartile == 1))

## [1] 1553

nrow(filter(life_df, income_quartile == 4))

## [1] 1553

[3]

life_df = mutate(life_df, high_income = as.numeric(income_quartile == 4))
life_df

## # A tibble: 3,106 × 19
##    county_name county_code state_abb income_quartile life_exp pct_uninsured
##    <chr>             <dbl> <chr>               <dbl>    <dbl>         <dbl>
##  1 Autauga            1001 AL                      1     76.4         0.136
##  2 Autauga            1001 AL                      4     84.2         0.136
##  3 Baldwin            1003 AL                      1     79.5         0.191
##  4 Baldwin            1003 AL                      4     86.3         0.191
##  5 Barbour            1005 AL                      1     79.7         0.185
##  6 Barbour            1005 AL                      4     86.7         0.185
##  7 Blount             1009 AL                      1     78.6         0.193
##  8 Blount             1009 AL                      4     86.3         0.193
##  9 Calhoun            1015 AL                      1     76.5         0.161
## 10 Calhoun            1015 AL                      4     84.9         0.161
## # ℹ 3,096 more rows
## # ℹ 13 more variables: poverty_rate <dbl>, pct_religious <dbl>,
## #   pct_black <dbl>, pct_hispanic <dbl>, unemployment_rate <dbl>,
## #   median_hh_inc <dbl>, is_urban <dbl>, pop <dbl>, pop_density <dbl>,
## #   pct_smoke <dbl>, pct_obese <dbl>, pct_exercise <dbl>, high_income <dbl>
…
